<?xml version="1.0" standalone="no"?>
<!DOCTYPE svg PUBLIC "-//W3C//DTD SVG 1.1//EN" "http://www.w3.org/Graphics/SVG/1.1/DTD/svg11.dtd">
<svg width="1024px" height="1024px" version="1.1" xmlns="http://www.w3.org/2000/svg" xmlns:xlink="http://www.w3.org/1999/xlink" xml:space="preserve" style="fill-rule:evenodd;clip-rule:evenodd;stroke-linejoin:round;stroke-miterlimit:1.41421;">
    <g>
        <path id="Capa_1" d="M1024,194.523C986.311,211.223 945.871,222.549 903.382,227.606C946.767,201.626 979.976,160.418 995.716,111.467C955.021,135.526 910.1,152.996 862.236,162.466C823.908,121.578 769.39,96.1104 708.921,96.1104C592.911,96.1104 498.849,190.173 498.849,306.119C498.849,322.563 500.704,338.624 504.288,353.983C329.73,345.215 174.943,261.583 71.347,134.502C53.238,165.473 42.9361,201.561 42.9361,240.083C42.9361,312.966 80.0494,377.274 136.359,414.897C101.933,413.746 69.555,404.276 41.2093,388.534L41.2093,391.158C41.2093,492.899 113.644,577.81 209.689,597.136C192.092,601.871 173.536,604.495 154.34,604.495C140.775,604.495 127.657,603.151 114.795,600.591C141.541,684.096 219.096,744.819 310.983,746.484C239.124,802.794 148.517,836.26 50.1041,836.26C33.1478,836.26 16.4459,835.236 0.0016732,833.38C92.9765,893.082 203.356,927.891 321.989,927.891C708.412,927.891 919.637,607.823 919.637,330.243L918.933,303.049C960.204,273.612 995.909,236.628 1024,194.523Z" style="fill:rgb(0,195,231);fill-rule:nonzero;"/>
    </g>
</svg>
